verilog/pixelTop_tb.vcd
$date
	Tue Nov 16 18:31:24 2021
$end
$version
	Icarus Verilog
$end
$timescale
	1ps
$end
$scope module pixelTop_tb $end
$var wire 16 ! pixdata1 [15:0] $end
$var wire 16 " pixdata2 [15:0] $end
$var reg 1 # clk $end
$var reg 1 $ reset $end
$scope module pt1 $end
$var wire 1 % anaReset $end
$var wire 1 # clk $end
$var wire 16 & pixdata1 [15:0] $end
$var wire 16 ' pixdata2 [15:0] $end
$var wire 1 $ reset $end
$var wire 1 ( read_2 $end
$var wire 1 ) read_1 $end
$var wire 1 * expose $end
$var wire 1 + erase $end
$var wire 1 , convert $end
$var wire 1 - anaRamp $end
$var wire 1 . anaBias1 $end
$var reg 16 / data_1 [15:0] $end
$var reg 16 0 data_2 [15:0] $end
$var reg 32 1 pixelDataOut [31:0] $end
$scope module fsm1 $end
$var wire 1 # clk $end
$var wire 1 $ reset $end
$var reg 1 , convert $end
$var reg 1 + erase $end
$var reg 1 * expose $end
$var reg 3 2 next_state [2:0] $end
$var reg 1 ) read_1 $end
$var reg 1 ( read_2 $end
$var reg 3 3 state [2:0] $end
$var integer 32 4 counter [31:0] $end
$upscope $end
$scope module pa1 $end
$var wire 16 5 DATA_1 [15:0] $end
$var wire 16 6 DATA_2 [15:0] $end
$var wire 1 + ERASE $end
$var wire 1 * EXPOSE $end
$var wire 1 - RAMP $end
$var wire 1 ) READ_1 $end
$var wire 1 ( READ_2 $end
$var wire 1 % RESET $end
$var wire 1 . VBN1 $end
$scope module pixel_sensor1 $end
$var wire 8 7 DATA [7:0] $end
$var wire 1 + ERASE $end
$var wire 1 * EXPOSE $end
$var wire 1 - RAMP $end
$var wire 1 ) READ $end
$var wire 1 % RESET $end
$var wire 1 . VBN1 $end
$var reg 1 8 cmp $end
$var reg 8 9 p_data [7:0] $end
$var real 1 : adc $end
$var real 1 ; lsb $end
$var real 1 < tmp $end
$var real 1 = v_erase $end
$upscope $end
$scope module pixel_sensor2 $end
$var wire 8 > DATA [7:0] $end
$var wire 1 + ERASE $end
$var wire 1 * EXPOSE $end
$var wire 1 - RAMP $end
$var wire 1 ) READ $end
$var wire 1 % RESET $end
$var wire 1 . VBN1 $end
$var reg 1 ? cmp $end
$var reg 8 @ p_data [7:0] $end
$var real 1 A adc $end
$var real 1 B lsb $end
$var real 1 C tmp $end
$var real 1 D v_erase $end
$upscope $end
$scope module pixel_sensor3 $end
$var wire 8 E DATA [7:0] $end
$var wire 1 + ERASE $end
$var wire 1 * EXPOSE $end
$var wire 1 - RAMP $end
$var wire 1 ( READ $end
$var wire 1 % RESET $end
$var wire 1 . VBN1 $end
$var reg 1 F cmp $end
$var reg 8 G p_data [7:0] $end
$var real 1 H adc $end
$var real 1 I lsb $end
$var real 1 J tmp $end
$var real 1 K v_erase $end
$upscope $end
$scope module pixel_sensor4 $end
$var wire 8 L DATA [7:0] $end
$var wire 1 + ERASE $end
$var wire 1 * EXPOSE $end
$var wire 1 - RAMP $end
$var wire 1 ( READ $end
$var wire 1 % RESET $end
$var wire 1 . VBN1 $end
$var reg 1 M cmp $end
$var reg 8 N p_data [7:0] $end
$var real 1 O adc $end
$var real 1 P lsb $end
$var real 1 Q tmp $end
$var real 1 R v_erase $end
$upscope $end
$upscope $end
$upscope $end
$upscope $end
$enddefinitions $end
#500000
$dumpvars
r1.2 R
r0 Q
r0.004705882352941176 P
r0 O
bx N
xM
bx L
r1.2 K
r0 J
r0.004705882352941176 I
r0 H
bx G
xF
bx E
r1.2 D
r0 C
r0.004705882352941176 B
r0 A
bx @
x?
bx >
r1.2 =
r0 <
r0.004705882352941176 ;
r0 :
bx 9
x8
bx 7
bx 6
bx 5
b0 4
b0 3
b0 2
b0 1
b0 0
b0 /
x.
0-
0,
x+
x*
x)
x(
bx '
bx &
1%
0$
1#
bx "
bx !
$end
#1000000
b0 E
b0 L
b0 "
b0 '
b0 6
b0 7
b0 >
b0 !
b0 &
b0 5
0M
b0 N
r1.2 Q
0F
b0 G
r1.2 J
0?
b0 @
r1.2 C
08
b0 9
r1.2 <
0*
0(
0)
1+
0.
0#
#1500000
b1 4
1#
#2000000
0#
#2500000
b10 4
1#
#3000000
0#
#3500000
b11 4
1#
#4000000
0#
#4500000
b100 4
1#
#5000000
0#
#5500000
b101 4
1#
#6000000
0#
#6500000
b101 3
b1 2
b110 4
1#
#7000000
0+
0#
#7500000
b1 3
b0 4
1#
#8000000
1*
0#
#8500000
r1.197647058823529 Q
r1.197647058823529 J
r1.197647058823529 C
r1.197647058823529 <
1.
b1 4
1#
#9000000
0.
0#
#9500000
r1.195294117647059 <
r1.195294117647059 C
r1.195294117647059 J
r1.195294117647059 Q
1.
b10 4
1#
#10000000
0.
0#
#10500000
r1.192941176470588 Q
r1.192941176470588 J
r1.192941176470588 C
r1.192941176470588 <
1.
b11 4
1#
#11000000
0.
0#
#11500000
r1.190588235294117 <
r1.190588235294117 C
r1.190588235294117 J
r1.190588235294117 Q
1.
b100 4
1#
#12000000
0.
0#
#12500000
r1.188235294117647 Q
r1.188235294117647 J
r1.188235294117647 C
r1.188235294117647 <
1.
b101 4
1#
#13000000
0.
0#
#13500000
r1.185882352941176 <
r1.185882352941176 C
r1.185882352941176 J
r1.185882352941176 Q
1.
b110 4
1#
#14000000
0.
0#
#14500000
r1.183529411764705 Q
r1.183529411764705 J
r1.183529411764705 C
r1.183529411764705 <
1.
b111 4
1#
#15000000
0.
0#
#15500000
r1.181176470588235 <
r1.181176470588235 C
r1.181176470588235 J
r1.181176470588235 Q
1.
b1000 4
1#
#16000000
0.
0#
#16500000
r1.178823529411764 Q
r1.178823529411764 J
r1.178823529411764 C
r1.178823529411764 <
1.
b1001 4
1#
#17000000
0.
0#
#17500000
r1.176470588235293 <
r1.176470588235293 C
r1.176470588235293 J
r1.176470588235293 Q
1.
b1010 4
1#
#18000000
0.
0#
#18500000
r1.174117647058823 Q
r1.174117647058823 J
r1.174117647058823 C
r1.174117647058823 <
1.
b1011 4
1#
#19000000
0.
0#
#19500000
r1.171764705882352 <
r1.171764705882352 C
r1.171764705882352 J
r1.171764705882352 Q
1.
b1100 4
1#
#20000000
0.
0#
#20500000
r1.169411764705881 Q
r1.169411764705881 J
r1.169411764705881 C
r1.169411764705881 <
1.
b1101 4
1#
#21000000
0.
0#
#21500000
r1.167058823529411 <
r1.167058823529411 C
r1.167058823529411 J
r1.167058823529411 Q
1.
b1110 4
1#
#22000000
0.
0#
#22500000
r1.16470588235294 Q
r1.16470588235294 J
r1.16470588235294 C
r1.16470588235294 <
1.
b1111 4
1#
#23000000
0.
0#
#23500000
r1.162352941176469 <
r1.162352941176469 C
r1.162352941176469 J
r1.162352941176469 Q
1.
b10000 4
1#
#24000000
0.
0#
#24500000
r1.159999999999999 Q
r1.159999999999999 J
r1.159999999999999 C
r1.159999999999999 <
1.
b10001 4
1#
#25000000
0.
0#
#25500000
r1.157647058823528 <
r1.157647058823528 C
r1.157647058823528 J
r1.157647058823528 Q
1.
b10010 4
1#
#26000000
0.
0#
#26500000
r1.155294117647057 Q
r1.155294117647057 J
r1.155294117647057 C
r1.155294117647057 <
1.
b10011 4
1#
#27000000
0.
0#
#27500000
r1.152941176470587 <
r1.152941176470587 C
r1.152941176470587 J
r1.152941176470587 Q
1.
b10100 4
1#
#28000000
0.
0#
#28500000
r1.150588235294116 Q
r1.150588235294116 J
r1.150588235294116 C
r1.150588235294116 <
1.
b10101 4
1#
#29000000
0.
0#
#29500000
r1.148235294117645 <
r1.148235294117645 C
r1.148235294117645 J
r1.148235294117645 Q
1.
b10110 4
1#
#30000000
0.
0#
#30500000
r1.145882352941175 Q
r1.145882352941175 J
r1.145882352941175 C
r1.145882352941175 <
1.
b10111 4
1#
#31000000
0.
0#
#31500000
r1.143529411764704 <
r1.143529411764704 C
r1.143529411764704 J
r1.143529411764704 Q
1.
b11000 4
1#
#32000000
0.
0#
#32500000
r1.141176470588233 Q
r1.141176470588233 J
r1.141176470588233 C
r1.141176470588233 <
1.
b11001 4
1#
#33000000
0.
0#
#33500000
r1.138823529411763 <
r1.138823529411763 C
r1.138823529411763 J
r1.138823529411763 Q
1.
b11010 4
1#
#34000000
0.
0#
#34500000
r1.136470588235292 Q
r1.136470588235292 J
r1.136470588235292 C
r1.136470588235292 <
1.
b11011 4
1#
#35000000
0.
0#
#35500000
r1.134117647058821 <
r1.134117647058821 C
r1.134117647058821 J
r1.134117647058821 Q
1.
b11100 4
1#
#36000000
0.
0#
#36500000
r1.131764705882351 Q
r1.131764705882351 J
r1.131764705882351 C
r1.131764705882351 <
1.
b11101 4
1#
#37000000
0.
0#
#37500000
r1.12941176470588 <
r1.12941176470588 C
r1.12941176470588 J
r1.12941176470588 Q
1.
b11110 4
1#
#38000000
0.
0#
#38500000
r1.127058823529409 Q
r1.127058823529409 J
r1.127058823529409 C
r1.127058823529409 <
1.
b11111 4
1#
#39000000
0.
0#
#39500000
r1.124705882352939 <
r1.124705882352939 C
r1.124705882352939 J
r1.124705882352939 Q
1.
b100000 4
1#
#40000000
0.
0#
#40500000
r1.122352941176468 Q
r1.122352941176468 J
r1.122352941176468 C
r1.122352941176468 <
1.
b100001 4
1#
#41000000
0.
0#
#41500000
r1.119999999999997 <
r1.119999999999997 C
r1.119999999999997 J
r1.119999999999997 Q
1.
b100010 4
1#
#42000000
0.
0#
#42500000
r1.117647058823527 Q
r1.117647058823527 J
r1.117647058823527 C
r1.117647058823527 <
1.
b100011 4
1#
#43000000
0.
0#
#43500000
r1.115294117647056 <
r1.115294117647056 C
r1.115294117647056 J
r1.115294117647056 Q
1.
b100100 4
1#
#44000000
0.
0#
#44500000
r1.112941176470585 Q
r1.112941176470585 J
r1.112941176470585 C
r1.112941176470585 <
1.
b100101 4
1#
#45000000
0.
0#
#45500000
r1.110588235294115 <
r1.110588235294115 C
r1.110588235294115 J
r1.110588235294115 Q
1.
b100110 4
1#
#46000000
0.
0#
#46500000
r1.108235294117644 Q
r1.108235294117644 J
r1.108235294117644 C
r1.108235294117644 <
1.
b100111 4
1#
#47000000
0.
0#
#47500000
r1.105882352941173 <
r1.105882352941173 C
r1.105882352941173 J
r1.105882352941173 Q
1.
b101000 4
1#
#48000000
0.
0#
#48500000
r1.103529411764703 Q
r1.103529411764703 J
r1.103529411764703 C
r1.103529411764703 <
1.
b101001 4
1#
#49000000
0.
0#
#49500000
r1.101176470588232 <
r1.101176470588232 C
r1.101176470588232 J
r1.101176470588232 Q
1.
b101010 4
1#
#50000000
0.
0#
#50500000
r1.098823529411761 Q
r1.098823529411761 J
r1.098823529411761 C
r1.098823529411761 <
1.
b101011 4
1#
#51000000
0.
0#
#51500000
r1.096470588235291 <
r1.096470588235291 C
r1.096470588235291 J
r1.096470588235291 Q
1.
b101100 4
1#
#52000000
0.
0#
#52500000
r1.09411764705882 Q
r1.09411764705882 J
r1.09411764705882 C
r1.09411764705882 <
1.
b101101 4
1#
#53000000
0.
0#
#53500000
r1.091764705882349 <
r1.091764705882349 C
r1.091764705882349 J
r1.091764705882349 Q
1.
b101110 4
1#
#54000000
0.
0#
#54500000
r1.089411764705879 Q
r1.089411764705879 J
r1.089411764705879 C
r1.089411764705879 <
1.
b101111 4
1#
#55000000
0.
0#
#55500000
r1.087058823529408 <
r1.087058823529408 C
r1.087058823529408 J
r1.087058823529408 Q
1.
b110000 4
1#
#56000000
0.
0#
#56500000
r1.084705882352937 Q
r1.084705882352937 J
r1.084705882352937 C
r1.084705882352937 <
1.
b110001 4
1#
#57000000
0.
0#
#57500000
r1.082352941176467 <
r1.082352941176467 C
r1.082352941176467 J
r1.082352941176467 Q
1.
b110010 4
1#
#58000000
0.
0#
#58500000
r1.079999999999996 Q
r1.079999999999996 J
r1.079999999999996 C
r1.079999999999996 <
1.
b110011 4
1#
#59000000
0.
0#
#59500000
r1.077647058823525 <
r1.077647058823525 C
r1.077647058823525 J
r1.077647058823525 Q
1.
b110100 4
1#
#60000000
0.
0#
#60500000
r1.075294117647055 Q
r1.075294117647055 J
r1.075294117647055 C
r1.075294117647055 <
1.
b110101 4
1#
#61000000
0.
0#
#61500000
r1.072941176470584 <
r1.072941176470584 C
r1.072941176470584 J
r1.072941176470584 Q
1.
b110110 4
1#
#62000000
0.
0#
#62500000
r1.070588235294113 Q
r1.070588235294113 J
r1.070588235294113 C
r1.070588235294113 <
1.
b110111 4
1#
#63000000
0.
0#
#63500000
r1.068235294117643 <
r1.068235294117643 C
r1.068235294117643 J
r1.068235294117643 Q
1.
b111000 4
1#
#64000000
0.
0#
#64500000
r1.065882352941172 Q
r1.065882352941172 J
r1.065882352941172 C
r1.065882352941172 <
1.
b111001 4
1#
#65000000
0.
0#
#65500000
r1.063529411764701 <
r1.063529411764701 C
r1.063529411764701 J
r1.063529411764701 Q
1.
b111010 4
1#
#66000000
0.
0#
#66500000
r1.061176470588231 Q
r1.061176470588231 J
r1.061176470588231 C
r1.061176470588231 <
1.
b111011 4
1#
#67000000
0.
0#
#67500000
r1.05882352941176 <
r1.05882352941176 C
r1.05882352941176 J
r1.05882352941176 Q
1.
b111100 4
1#
#68000000
0.
0#
#68500000
r1.056470588235289 Q
r1.056470588235289 J
r1.056470588235289 C
r1.056470588235289 <
1.
b111101 4
1#
#69000000
0.
0#
#69500000
r1.054117647058818 <
r1.054117647058818 C
r1.054117647058818 J
r1.054117647058818 Q
1.
b111110 4
1#
#70000000
0.
0#
#70500000
r1.051764705882348 Q
r1.051764705882348 J
r1.051764705882348 C
r1.051764705882348 <
1.
b111111 4
1#
#71000000
0.
0#
#71500000
r1.049411764705877 <
r1.049411764705877 C
r1.049411764705877 J
r1.049411764705877 Q
1.
b1000000 4
1#
#72000000
0.
0#
#72500000
r1.047058823529406 Q
r1.047058823529406 J
r1.047058823529406 C
r1.047058823529406 <
1.
b1000001 4
1#
#73000000
0.
0#
#73500000
r1.044705882352936 <
r1.044705882352936 C
r1.044705882352936 J
r1.044705882352936 Q
1.
b1000010 4
1#
#74000000
0.
0#
#74500000
r1.042352941176465 Q
r1.042352941176465 J
r1.042352941176465 C
r1.042352941176465 <
1.
b1000011 4
1#
#75000000
0.
0#
#75500000
r1.039999999999994 <
r1.039999999999994 C
r1.039999999999994 J
r1.039999999999994 Q
1.
b1000100 4
1#
#76000000
0.
0#
#76500000
r1.037647058823524 Q
r1.037647058823524 J
r1.037647058823524 C
r1.037647058823524 <
1.
b1000101 4
1#
#77000000
0.
0#
#77500000
r1.035294117647053 <
r1.035294117647053 C
r1.035294117647053 J
r1.035294117647053 Q
1.
b1000110 4
1#
#78000000
0.
0#
#78500000
r1.032941176470582 Q
r1.032941176470582 J
r1.032941176470582 C
r1.032941176470582 <
1.
b1000111 4
1#
#79000000
0.
0#
#79500000
r1.030588235294112 <
r1.030588235294112 C
r1.030588235294112 J
r1.030588235294112 Q
1.
b1001000 4
1#
#80000000
0.
0#
#80500000
r1.028235294117641 Q
r1.028235294117641 J
r1.028235294117641 C
r1.028235294117641 <
1.
b1001001 4
1#
#81000000
0.
0#
#81500000
r1.02588235294117 <
r1.02588235294117 C
r1.02588235294117 J
r1.02588235294117 Q
1.
b1001010 4
1#
#82000000
0.
0#
#82500000
r1.0235294117647 Q
r1.0235294117647 J
r1.0235294117647 C
r1.0235294117647 <
1.
b1001011 4
1#
#83000000
0.
0#
#83500000
r1.021176470588229 <
r1.021176470588229 C
r1.021176470588229 J
r1.021176470588229 Q
1.
b1001100 4
1#
#84000000
0.
0#
#84500000
r1.018823529411758 Q
r1.018823529411758 J
r1.018823529411758 C
r1.018823529411758 <
1.
b1001101 4
1#
#85000000
0.
0#
#85500000
r1.016470588235288 <
r1.016470588235288 C
r1.016470588235288 J
r1.016470588235288 Q
1.
b1001110 4
1#
#86000000
0.
0#
#86500000
r1.014117647058817 Q
r1.014117647058817 J
r1.014117647058817 C
r1.014117647058817 <
1.
b1001111 4
1#
#87000000
0.
0#
#87500000
r1.011764705882346 <
r1.011764705882346 C
r1.011764705882346 J
r1.011764705882346 Q
1.
b1010000 4
1#
#88000000
0.
0#
#88500000
r1.009411764705876 Q
r1.009411764705876 J
r1.009411764705876 C
r1.009411764705876 <
1.
b1010001 4
1#
#89000000
0.
0#
#89500000
r1.007058823529405 <
r1.007058823529405 C
r1.007058823529405 J
r1.007058823529405 Q
1.
b1010010 4
1#
#90000000
0.
0#
#90500000
r1.004705882352934 Q
r1.004705882352934 J
r1.004705882352934 C
r1.004705882352934 <
1.
b1010011 4
1#
#91000000
0.
0#
#91500000
r1.002352941176464 <
r1.002352941176464 C
r1.002352941176464 J
r1.002352941176464 Q
1.
b1010100 4
1#
#92000000
0.
0#
#92500000
r0.9999999999999932 Q
r0.9999999999999932 J
r0.9999999999999932 C
r0.9999999999999932 <
1.
b1010101 4
1#
#93000000
0.
0#
#93500000
r0.9976470588235227 <
r0.9976470588235227 C
r0.9976470588235227 J
r0.9976470588235227 Q
1.
b1010110 4
1#
#94000000
0.
0#
#94500000
r0.9952941176470521 Q
r0.9952941176470521 J
r0.9952941176470521 C
r0.9952941176470521 <
1.
b1010111 4
1#
#95000000
0.
0#
#95500000
r0.9929411764705816 <
r0.9929411764705816 C
r0.9929411764705816 J
r0.9929411764705816 Q
1.
b1011000 4
1#
#96000000
0.
0#
#96500000
r0.990588235294111 Q
r0.990588235294111 J
r0.990588235294111 C
r0.990588235294111 <
1.
b1011001 4
1#
#97000000
0.
0#
#97500000
r0.9882352941176404 <
r0.9882352941176404 C
r0.9882352941176404 J
r0.9882352941176404 Q
1.
b1011010 4
1#
#98000000
0.
0#
#98500000
r0.9858823529411699 Q
r0.9858823529411699 J
r0.9858823529411699 C
r0.9858823529411699 <
1.
b1011011 4
1#
#99000000
0.
0#
#99500000
r0.9835294117646993 <
r0.9835294117646993 C
r0.9835294117646993 J
r0.9835294117646993 Q
1.
b1011100 4
1#
#100000000
0.
0#
#100500000
r0.9811764705882288 Q
r0.9811764705882288 J
r0.9811764705882288 C
r0.9811764705882288 <
1.
b1011101 4
1#
#101000000
0.
0#
#101500000
r0.9788235294117582 <
r0.9788235294117582 C
r0.9788235294117582 J
r0.9788235294117582 Q
1.
b1011110 4
1#
#102000000
0.
0#
#102500000
r0.9764705882352877 Q
r0.9764705882352877 J
r0.9764705882352877 C
r0.9764705882352877 <
1.
b1011111 4
1#
#103000000
0.
0#
#103500000
r0.9741176470588171 <
r0.9741176470588171 C
r0.9741176470588171 J
r0.9741176470588171 Q
1.
b1100000 4
1#
#104000000
0.
0#
#104500000
r0.9717647058823465 Q
r0.9717647058823465 J
r0.9717647058823465 C
r0.9717647058823465 <
1.
b1100001 4
1#
#105000000
0.
0#
#105500000
r0.969411764705876 <
r0.969411764705876 C
r0.969411764705876 J
r0.969411764705876 Q
1.
b1100010 4
1#
#106000000
0.
0#
#106500000
r0.9670588235294054 Q
r0.9670588235294054 J
r0.9670588235294054 C
r0.9670588235294054 <
1.
b1100011 4
1#
#107000000
0.
0#
#107500000
r0.9647058823529349 <
r0.9647058823529349 C
r0.9647058823529349 J
r0.9647058823529349 Q
1.
b1100100 4
1#
#108000000
0.
0#
#108500000
r0.9623529411764643 Q
r0.9623529411764643 J
r0.9623529411764643 C
r0.9623529411764643 <
1.
b1100101 4
1#
#109000000
0.
0#
#109500000
r0.9599999999999937 <
r0.9599999999999937 C
r0.9599999999999937 J
r0.9599999999999937 Q
1.
b1100110 4
1#
#110000000
0.
0#
#110500000
r0.9576470588235232 Q
r0.9576470588235232 J
r0.9576470588235232 C
r0.9576470588235232 <
1.
b1100111 4
1#
#111000000
0.
0#
#111500000
r0.9552941176470526 <
r0.9552941176470526 C
r0.9552941176470526 J
r0.9552941176470526 Q
1.
b1101000 4
1#
#112000000
0.
0#
#112500000
r0.9529411764705821 Q
r0.9529411764705821 J
r0.9529411764705821 C
r0.9529411764705821 <
1.
b1101001 4
1#
#113000000
0.
0#
#113500000
r0.9505882352941115 <
r0.9505882352941115 C
r0.9505882352941115 J
r0.9505882352941115 Q
1.
b1101010 4
1#
#114000000
0.
0#
#114500000
r0.948235294117641 Q
r0.948235294117641 J
r0.948235294117641 C
r0.948235294117641 <
1.
b1101011 4
1#
#115000000
0.
0#
#115500000
r0.9458823529411704 <
r0.9458823529411704 C
r0.9458823529411704 J
r0.9458823529411704 Q
1.
b1101100 4
1#
#116000000
0.
0#
#116500000
r0.9435294117646998 Q
r0.9435294117646998 J
r0.9435294117646998 C
r0.9435294117646998 <
1.
b1101101 4
1#
#117000000
0.
0#
#117500000
r0.9411764705882293 <
r0.9411764705882293 C
r0.9411764705882293 J
r0.9411764705882293 Q
1.
b1101110 4
1#
#118000000
0.
0#
#118500000
r0.9388235294117587 Q
r0.9388235294117587 J
r0.9388235294117587 C
r0.9388235294117587 <
1.
b1101111 4
1#
#119000000
0.
0#
#119500000
r0.9364705882352882 <
r0.9364705882352882 C
r0.9364705882352882 J
r0.9364705882352882 Q
1.
b1110000 4
1#
#120000000
0.
0#
#120500000
r0.9341176470588176 Q
r0.9341176470588176 J
r0.9341176470588176 C
r0.9341176470588176 <
1.
b1110001 4
1#
#121000000
0.
0#
#121500000
r0.9317647058823471 <
r0.9317647058823471 C
r0.9317647058823471 J
r0.9317647058823471 Q
1.
b1110010 4
1#
#122000000
0.
0#
#122500000
r0.9294117647058765 Q
r0.9294117647058765 J
r0.9294117647058765 C
r0.9294117647058765 <
1.
b1110011 4
1#
#123000000
0.
0#
#123500000
r0.9270588235294059 <
r0.9270588235294059 C
r0.9270588235294059 J
r0.9270588235294059 Q
1.
b1110100 4
1#
#124000000
0.
0#
#124500000
r0.9247058823529354 Q
r0.9247058823529354 J
r0.9247058823529354 C
r0.9247058823529354 <
1.
b1110101 4
1#
#125000000
0.
0#
#125500000
r0.9223529411764648 <
r0.9223529411764648 C
r0.9223529411764648 J
r0.9223529411764648 Q
1.
b1110110 4
1#
#126000000
0.
0#
#126500000
r0.9199999999999943 Q
r0.9199999999999943 J
r0.9199999999999943 C
r0.9199999999999943 <
1.
b1110111 4
1#
#127000000
0.
0#
#127500000
r0.9176470588235237 <
r0.9176470588235237 C
r0.9176470588235237 J
r0.9176470588235237 Q
1.
b1111000 4
1#
#128000000
0.
0#
#128500000
r0.9152941176470532 Q
r0.9152941176470532 J
r0.9152941176470532 C
r0.9152941176470532 <
1.
b1111001 4
1#
#129000000
0.
0#
#129500000
r0.9129411764705826 <
r0.9129411764705826 C
r0.9129411764705826 J
r0.9129411764705826 Q
1.
b1111010 4
1#
#130000000
0.
0#
#130500000
r0.910588235294112 Q
r0.910588235294112 J
r0.910588235294112 C
r0.910588235294112 <
1.
b1111011 4
1#
#131000000
0.
0#
#131500000
r0.9082352941176415 <
r0.9082352941176415 C
r0.9082352941176415 J
r0.9082352941176415 Q
1.
b1111100 4
1#
#132000000
0.
0#
#132500000
r0.9058823529411709 Q
r0.9058823529411709 J
r0.9058823529411709 C
r0.9058823529411709 <
1.
b1111101 4
1#
#133000000
0.
0#
#133500000
r0.9035294117647004 <
r0.9035294117647004 C
r0.9035294117647004 J
r0.9035294117647004 Q
1.
b1111110 4
1#
#134000000
0.
0#
#134500000
r0.9011764705882298 Q
r0.9011764705882298 J
r0.9011764705882298 C
r0.9011764705882298 <
1.
b1111111 4
1#
#135000000
0.
0#
#135500000
r0.8988235294117592 <
r0.8988235294117592 C
r0.8988235294117592 J
r0.8988235294117592 Q
1.
b10000000 4
1#
#136000000
0.
0#
#136500000
r0.8964705882352887 Q
r0.8964705882352887 J
r0.8964705882352887 C
r0.8964705882352887 <
1.
b10000001 4
1#
#137000000
0.
0#
#137500000
r0.8941176470588181 <
r0.8941176470588181 C
r0.8941176470588181 J
r0.8941176470588181 Q
1.
b10000010 4
1#
#138000000
0.
0#
#138500000
r0.8917647058823476 Q
r0.8917647058823476 J
r0.8917647058823476 C
r0.8917647058823476 <
1.
b10000011 4
1#
#139000000
0.
0#
#139500000
r0.889411764705877 <
r0.889411764705877 C
r0.889411764705877 J
r0.889411764705877 Q
1.
b10000100 4
1#
#140000000
0.
0#
#140500000
r0.8870588235294065 Q
r0.8870588235294065 J
r0.8870588235294065 C
r0.8870588235294065 <
1.
b10000101 4
1#
#141000000
0.
0#
#141500000
r0.8847058823529359 <
r0.8847058823529359 C
r0.8847058823529359 J
r0.8847058823529359 Q
1.
b10000110 4
1#
#142000000
0.
0#
#142500000
r0.8823529411764653 Q
r0.8823529411764653 J
r0.8823529411764653 C
r0.8823529411764653 <
1.
b10000111 4
1#
#143000000
0.
0#
#143500000
r0.8799999999999948 <
r0.8799999999999948 C
r0.8799999999999948 J
r0.8799999999999948 Q
1.
b10001000 4
1#
#144000000
0.
0#
#144500000
r0.8776470588235242 Q
r0.8776470588235242 J
r0.8776470588235242 C
r0.8776470588235242 <
1.
b10001001 4
1#
#145000000
0.
0#
#145500000
r0.8752941176470537 <
r0.8752941176470537 C
r0.8752941176470537 J
r0.8752941176470537 Q
1.
b10001010 4
1#
#146000000
0.
0#
#146500000
r0.8729411764705831 Q
r0.8729411764705831 J
r0.8729411764705831 C
r0.8729411764705831 <
1.
b10001011 4
1#
#147000000
0.
0#
#147500000
r0.8705882352941126 <
r0.8705882352941126 C
r0.8705882352941126 J
r0.8705882352941126 Q
1.
b10001100 4
1#
#148000000
0.
0#
#148500000
r0.868235294117642 Q
r0.868235294117642 J
r0.868235294117642 C
r0.868235294117642 <
1.
b10001101 4
1#
#149000000
0.
0#
#149500000
r0.8658823529411714 <
r0.8658823529411714 C
r0.8658823529411714 J
r0.8658823529411714 Q
1.
b10001110 4
1#
#150000000
0.
0#
#150500000
r0.8635294117647009 Q
r0.8635294117647009 J
r0.8635294117647009 C
r0.8635294117647009 <
1.
b10001111 4
1#
#151000000
0.
0#
#151500000
r0.8611764705882303 <
r0.8611764705882303 C
r0.8611764705882303 J
r0.8611764705882303 Q
1.
b10010000 4
1#
#152000000
0.
0#
#152500000
r0.8588235294117598 Q
r0.8588235294117598 J
r0.8588235294117598 C
r0.8588235294117598 <
1.
b10010001 4
1#
#153000000
0.
0#
#153500000
r0.8564705882352892 <
r0.8564705882352892 C
r0.8564705882352892 J
r0.8564705882352892 Q
1.
b10010010 4
1#
#154000000
0.
0#
#154500000
r0.8541176470588187 Q
r0.8541176470588187 J
r0.8541176470588187 C
r0.8541176470588187 <
1.
b10010011 4
1#
#155000000
0.
0#
#155500000
r0.8517647058823481 <
r0.8517647058823481 C
r0.8517647058823481 J
r0.8517647058823481 Q
1.
b10010100 4
1#
#156000000
0.
0#
#156500000
r0.8494117647058775 Q
r0.8494117647058775 J
r0.8494117647058775 C
r0.8494117647058775 <
1.
b10010101 4
1#
#157000000
0.
0#
#157500000
r0.847058823529407 <
r0.847058823529407 C
r0.847058823529407 J
r0.847058823529407 Q
1.
b10010110 4
1#
#158000000
0.
0#
#158500000
r0.8447058823529364 Q
r0.8447058823529364 J
r0.8447058823529364 C
r0.8447058823529364 <
1.
b10010111 4
1#
#159000000
0.
0#
#159500000
r0.8423529411764659 <
r0.8423529411764659 C
r0.8423529411764659 J
r0.8423529411764659 Q
1.
b10011000 4
1#
#160000000
0.
0#
#160500000
r0.8399999999999953 Q
r0.8399999999999953 J
r0.8399999999999953 C
r0.8399999999999953 <
1.
b10011001 4
1#
#161000000
0.
0#
#161500000
r0.8376470588235247 <
r0.8376470588235247 C
r0.8376470588235247 J
r0.8376470588235247 Q
1.
b10011010 4
1#
#162000000
0.
0#
#162500000
r0.8352941176470542 Q
r0.8352941176470542 J
r0.8352941176470542 C
r0.8352941176470542 <
1.
b10011011 4
1#
#163000000
0.
0#
#163500000
r0.8329411764705836 <
r0.8329411764705836 C
r0.8329411764705836 J
r0.8329411764705836 Q
1.
b10011100 4
1#
#164000000
0.
0#
#164500000
r0.8305882352941131 Q
r0.8305882352941131 J
r0.8305882352941131 C
r0.8305882352941131 <
1.
b10011101 4
1#
#165000000
0.
0#
#165500000
r0.8282352941176425 <
r0.8282352941176425 C
r0.8282352941176425 J
r0.8282352941176425 Q
1.
b10011110 4
1#
#166000000
0.
0#
#166500000
r0.825882352941172 Q
r0.825882352941172 J
r0.825882352941172 C
r0.825882352941172 <
1.
b10011111 4
1#
#167000000
0.
0#
#167500000
r0.8235294117647014 <
r0.8235294117647014 C
r0.8235294117647014 J
r0.8235294117647014 Q
1.
b10100000 4
1#
#168000000
0.
0#
#168500000
r0.8211764705882308 Q
r0.8211764705882308 J
r0.8211764705882308 C
r0.8211764705882308 <
1.
b10100001 4
1#
#169000000
0.
0#
#169500000
r0.8188235294117603 <
r0.8188235294117603 C
r0.8188235294117603 J
r0.8188235294117603 Q
1.
b10100010 4
1#
#170000000
0.
0#
#170500000
r0.8164705882352897 Q
r0.8164705882352897 J
r0.8164705882352897 C
r0.8164705882352897 <
1.
b10100011 4
1#
#171000000
0.
0#
#171500000
r0.8141176470588192 <
r0.8141176470588192 C
r0.8141176470588192 J
r0.8141176470588192 Q
1.
b10100100 4
1#
#172000000
0.
0#
#172500000
r0.8117647058823486 Q
r0.8117647058823486 J
r0.8117647058823486 C
r0.8117647058823486 <
1.
b10100101 4
1#
#173000000
0.
0#
#173500000
r0.8094117647058781 <
r0.8094117647058781 C
r0.8094117647058781 J
r0.8094117647058781 Q
1.
b10100110 4
1#
#174000000
0.
0#
#174500000
r0.8070588235294075 Q
r0.8070588235294075 J
r0.8070588235294075 C
r0.8070588235294075 <
1.
b10100111 4
1#
#175000000
0.
0#
#175500000
r0.8047058823529369 <
r0.8047058823529369 C
r0.8047058823529369 J
r0.8047058823529369 Q
1.
b10101000 4
1#
#176000000
0.
0#
#176500000
r0.8023529411764664 Q
r0.8023529411764664 J
r0.8023529411764664 C
r0.8023529411764664 <
1.
b10101001 4
1#
#177000000
0.
0#
