verilog/pixelState_tb.vcd
$date
	Tue Nov 16 18:26:24 2021
$end
$version
	Icarus Verilog
$end
$timescale
	1ps
$end
$scope module pixelState_tb $end
$var wire 1 ! anaReset $end
$var wire 16 " pixdata1 [15:0] $end
$var wire 16 # pixdata2 [15:0] $end
$var wire 1 $ read_2 $end
$var wire 1 % read_1 $end
$var wire 1 & expose $end
$var wire 1 ' erase $end
$var wire 1 ( convert $end
$var wire 1 ) anaRamp $end
$var wire 1 * anaBias1 $end
$var reg 1 + clk $end
$var reg 16 , data_1 [15:0] $end
$var reg 16 - data_2 [15:0] $end
$var reg 32 . pixelDataOut [31:0] $end
$var reg 1 / reset $end
$scope module fsm1 $end
$var wire 1 + clk $end
$var wire 1 / reset $end
$var reg 1 ( convert $end
$var reg 1 ' erase $end
$var reg 1 & expose $end
$var reg 3 0 next_state [2:0] $end
$var reg 1 % read_1 $end
$var reg 1 $ read_2 $end
$var reg 3 1 state [2:0] $end
$var integer 32 2 counter [31:0] $end
$upscope $end
$scope module pa1 $end
$var wire 16 3 DATA_1 [15:0] $end
$var wire 16 4 DATA_2 [15:0] $end
$var wire 1 ' ERASE $end
$var wire 1 & EXPOSE $end
$var wire 1 ) RAMP $end
$var wire 1 % READ_1 $end
$var wire 1 $ READ_2 $end
$var wire 1 ! RESET $end
$var wire 1 * VBN1 $end
$scope module pixel_sensor1 $end
$var wire 8 5 DATA [7:0] $end
$var wire 1 ' ERASE $end
$var wire 1 & EXPOSE $end
$var wire 1 ) RAMP $end
$var wire 1 % READ $end
$var wire 1 ! RESET $end
$var wire 1 * VBN1 $end
$var reg 1 6 cmp $end
$var reg 8 7 p_data [7:0] $end
$var real 1 8 adc $end
$var real 1 9 lsb $end
$var real 1 : tmp $end
$var real 1 ; v_erase $end
$upscope $end
$scope module pixel_sensor2 $end
$var wire 8 < DATA [7:0] $end
$var wire 1 ' ERASE $end
$var wire 1 & EXPOSE $end
$var wire 1 ) RAMP $end
$var wire 1 % READ $end
$var wire 1 ! RESET $end
$var wire 1 * VBN1 $end
$var reg 1 = cmp $end
$var reg 8 > p_data [7:0] $end
$var real 1 ? adc $end
$var real 1 @ lsb $end
$var real 1 A tmp $end
$var real 1 B v_erase $end
$upscope $end
$scope module pixel_sensor3 $end
$var wire 8 C DATA [7:0] $end
$var wire 1 ' ERASE $end
$var wire 1 & EXPOSE $end
$var wire 1 ) RAMP $end
$var wire 1 $ READ $end
$var wire 1 ! RESET $end
$var wire 1 * VBN1 $end
$var reg 1 D cmp $end
$var reg 8 E p_data [7:0] $end
$var real 1 F adc $end
$var real 1 G lsb $end
$var real 1 H tmp $end
$var real 1 I v_erase $end
$upscope $end
$scope module pixel_sensor4 $end
$var wire 8 J DATA [7:0] $end
$var wire 1 ' ERASE $end
$var wire 1 & EXPOSE $end
$var wire 1 ) RAMP $end
$var wire 1 $ READ $end
$var wire 1 ! RESET $end
$var wire 1 * VBN1 $end
$var reg 1 K cmp $end
$var reg 8 L p_data [7:0] $end
$var real 1 M adc $end
$var real 1 N lsb $end
$var real 1 O tmp $end
$var real 1 P v_erase $end
$upscope $end
$upscope $end
$upscope $end
$enddefinitions $end
#500000
$dumpvars
r1.2 P
r0 O
r0.004705882352941176 N
r0 M
bx L
xK
bx J
r1.2 I
r0 H
r0.004705882352941176 G
r0 F
bx E
xD
bx C
r1.2 B
r0 A
r0.004705882352941176 @
r0 ?
bx >
x=
bx <
r1.2 ;
r0 :
r0.004705882352941176 9
r0 8
bx 7
x6
bx 5
bx 4
bx 3
b0 2
b0 1
b0 0
0/
b0 .
b0 -
b0 ,
1+
x*
0)
0(
x'
x&
x%
x$
bx #
bx "
1!
$end
#1000000
b0 C
b0 J
b0 #
b0 4
b0 5
b0 <
b0 "
b0 3
0K
b0 L
r1.2 O
0D
b0 E
r1.2 H
0=
b0 >
r1.2 A
06
b0 7
r1.2 :
0&
0$
0%
1'
0*
0+
#1500000
b1 2
1+
#2000000
0+
#2500000
b10 2
1+
#3000000
0+
#3500000
b11 2
1+
#4000000
0+
#4500000
b100 2
1+
#5000000
0+
#5500000
b101 2
1+
#6000000
0+
#6500000
b101 1
b1 0
b110 2
1+
#7000000
0'
0+
#7500000
b1 1
b0 2
1+
#8000000
1&
0+
#8500000
r1.197647058823529 O
r1.197647058823529 H
r1.197647058823529 A
r1.197647058823529 :
1*
b1 2
1+
#9000000
0*
0+
#9500000
r1.195294117647059 :
r1.195294117647059 A
r1.195294117647059 H
r1.195294117647059 O
1*
b10 2
1+
#10000000
0*
0+
#10500000
r1.192941176470588 O
r1.192941176470588 H
r1.192941176470588 A
r1.192941176470588 :
1*
b11 2
1+
#11000000
0*
0+
#11500000
r1.190588235294117 :
r1.190588235294117 A
r1.190588235294117 H
r1.190588235294117 O
1*
b100 2
1+
#12000000
0*
0+
#12500000
r1.188235294117647 O
r1.188235294117647 H
r1.188235294117647 A
r1.188235294117647 :
1*
b101 2
1+
#13000000
0*
0+
#13500000
r1.185882352941176 :
r1.185882352941176 A
r1.185882352941176 H
r1.185882352941176 O
1*
b110 2
1+
#14000000
0*
0+
#14500000
r1.183529411764705 O
r1.183529411764705 H
r1.183529411764705 A
r1.183529411764705 :
1*
b111 2
1+
#15000000
0*
0+
#15500000
r1.181176470588235 :
r1.181176470588235 A
r1.181176470588235 H
r1.181176470588235 O
1*
b1000 2
1+
#16000000
0*
0+
#16500000
r1.178823529411764 O
r1.178823529411764 H
r1.178823529411764 A
r1.178823529411764 :
1*
b1001 2
1+
#17000000
0*
0+
#17500000
r1.176470588235293 :
r1.176470588235293 A
r1.176470588235293 H
r1.176470588235293 O
1*
b1010 2
1+
#18000000
0*
0+
#18500000
r1.174117647058823 O
r1.174117647058823 H
r1.174117647058823 A
r1.174117647058823 :
1*
b1011 2
1+
#19000000
0*
0+
#19500000
r1.171764705882352 :
r1.171764705882352 A
r1.171764705882352 H
r1.171764705882352 O
1*
b1100 2
1+
#20000000
0*
0+
#20500000
r1.169411764705881 O
r1.169411764705881 H
r1.169411764705881 A
r1.169411764705881 :
1*
b1101 2
1+
#21000000
0*
0+
#21500000
r1.167058823529411 :
r1.167058823529411 A
r1.167058823529411 H
r1.167058823529411 O
1*
b1110 2
1+
#22000000
0*
0+
#22500000
r1.16470588235294 O
r1.16470588235294 H
r1.16470588235294 A
r1.16470588235294 :
1*
b1111 2
1+
#23000000
0*
0+
#23500000
r1.162352941176469 :
r1.162352941176469 A
r1.162352941176469 H
r1.162352941176469 O
1*
b10000 2
1+
#24000000
0*
0+
#24500000
r1.159999999999999 O
r1.159999999999999 H
r1.159999999999999 A
r1.159999999999999 :
1*
b10001 2
1+
#25000000
0*
0+
#25500000
r1.157647058823528 :
r1.157647058823528 A
r1.157647058823528 H
r1.157647058823528 O
1*
b10010 2
1+
#26000000
0*
0+
#26500000
r1.155294117647057 O
r1.155294117647057 H
r1.155294117647057 A
r1.155294117647057 :
1*
b10011 2
1+
#27000000
0*
0+
#27500000
r1.152941176470587 :
r1.152941176470587 A
r1.152941176470587 H
r1.152941176470587 O
1*
b10100 2
1+
#28000000
0*
0+
#28500000
r1.150588235294116 O
r1.150588235294116 H
r1.150588235294116 A
r1.150588235294116 :
1*
b10101 2
1+
#29000000
0*
0+
#29500000
r1.148235294117645 :
r1.148235294117645 A
r1.148235294117645 H
r1.148235294117645 O
1*
b10110 2
1+
#30000000
0*
0+
#30500000
r1.145882352941175 O
r1.145882352941175 H
r1.145882352941175 A
r1.145882352941175 :
1*
b10111 2
1+
#31000000
0*
0+
#31500000
r1.143529411764704 :
r1.143529411764704 A
r1.143529411764704 H
r1.143529411764704 O
1*
b11000 2
1+
#32000000
0*
0+
#32500000
r1.141176470588233 O
r1.141176470588233 H
r1.141176470588233 A
r1.141176470588233 :
1*
b11001 2
1+
#33000000
0*
0+
#33500000
r1.138823529411763 :
r1.138823529411763 A
r1.138823529411763 H
r1.138823529411763 O
1*
b11010 2
1+
#34000000
0*
0+
#34500000
r1.136470588235292 O
r1.136470588235292 H
r1.136470588235292 A
r1.136470588235292 :
1*
b11011 2
1+
#35000000
0*
0+
#35500000
r1.134117647058821 :
r1.134117647058821 A
r1.134117647058821 H
r1.134117647058821 O
1*
b11100 2
1+
#36000000
0*
0+
#36500000
r1.131764705882351 O
r1.131764705882351 H
r1.131764705882351 A
r1.131764705882351 :
1*
b11101 2
1+
#37000000
0*
0+
#37500000
r1.12941176470588 :
r1.12941176470588 A
r1.12941176470588 H
r1.12941176470588 O
1*
b11110 2
1+
#38000000
0*
0+
#38500000
r1.127058823529409 O
r1.127058823529409 H
r1.127058823529409 A
r1.127058823529409 :
1*
b11111 2
1+
#39000000
0*
0+
#39500000
r1.124705882352939 :
r1.124705882352939 A
r1.124705882352939 H
r1.124705882352939 O
1*
b100000 2
1+
#40000000
0*
0+
#40500000
r1.122352941176468 O
r1.122352941176468 H
r1.122352941176468 A
r1.122352941176468 :
1*
b100001 2
1+
#41000000
0*
0+
#41500000
r1.119999999999997 :
r1.119999999999997 A
r1.119999999999997 H
r1.119999999999997 O
1*
b100010 2
1+
#42000000
0*
0+
#42500000
r1.117647058823527 O
r1.117647058823527 H
r1.117647058823527 A
r1.117647058823527 :
1*
b100011 2
1+
#43000000
0*
0+
#43500000
r1.115294117647056 :
r1.115294117647056 A
r1.115294117647056 H
r1.115294117647056 O
1*
b100100 2
1+
#44000000
0*
0+
#44500000
r1.112941176470585 O
r1.112941176470585 H
r1.112941176470585 A
r1.112941176470585 :
1*
b100101 2
1+
#45000000
0*
0+
#45500000
r1.110588235294115 :
r1.110588235294115 A
r1.110588235294115 H
r1.110588235294115 O
1*
b100110 2
1+
#46000000
0*
0+
#46500000
r1.108235294117644 O
r1.108235294117644 H
r1.108235294117644 A
r1.108235294117644 :
1*
b100111 2
1+
#47000000
0*
0+
#47500000
r1.105882352941173 :
r1.105882352941173 A
r1.105882352941173 H
r1.105882352941173 O
1*
b101000 2
1+
#48000000
0*
0+
#48500000
r1.103529411764703 O
r1.103529411764703 H
r1.103529411764703 A
r1.103529411764703 :
1*
b101001 2
1+
#49000000
0*
0+
#49500000
r1.101176470588232 :
r1.101176470588232 A
r1.101176470588232 H
r1.101176470588232 O
1*
b101010 2
1+
#50000000
0*
0+
#50500000
r1.098823529411761 O
r1.098823529411761 H
r1.098823529411761 A
r1.098823529411761 :
1*
b101011 2
1+
#51000000
0*
0+
#51500000
r1.096470588235291 :
r1.096470588235291 A
r1.096470588235291 H
r1.096470588235291 O
1*
b101100 2
1+
#52000000
0*
0+
#52500000
r1.09411764705882 O
r1.09411764705882 H
r1.09411764705882 A
r1.09411764705882 :
1*
b101101 2
1+
#53000000
0*
0+
#53500000
r1.091764705882349 :
r1.091764705882349 A
r1.091764705882349 H
r1.091764705882349 O
1*
b101110 2
1+
#54000000
0*
0+
#54500000
r1.089411764705879 O
r1.089411764705879 H
r1.089411764705879 A
r1.089411764705879 :
1*
b101111 2
1+
#55000000
0*
0+
#55500000
r1.087058823529408 :
r1.087058823529408 A
r1.087058823529408 H
r1.087058823529408 O
1*
b110000 2
1+
#56000000
0*
0+
#56500000
r1.084705882352937 O
r1.084705882352937 H
r1.084705882352937 A
r1.084705882352937 :
1*
b110001 2
1+
#57000000
0*
0+
#57500000
r1.082352941176467 :
r1.082352941176467 A
r1.082352941176467 H
r1.082352941176467 O
1*
b110010 2
1+
#58000000
0*
0+
#58500000
r1.079999999999996 O
r1.079999999999996 H
r1.079999999999996 A
r1.079999999999996 :
1*
b110011 2
1+
#59000000
0*
0+
#59500000
r1.077647058823525 :
r1.077647058823525 A
r1.077647058823525 H
r1.077647058823525 O
1*
b110100 2
1+
#60000000
0*
0+
#60500000
r1.075294117647055 O
r1.075294117647055 H
r1.075294117647055 A
r1.075294117647055 :
1*
b110101 2
1+
#61000000
0*
0+
#61500000
r1.072941176470584 :
r1.072941176470584 A
r1.072941176470584 H
r1.072941176470584 O
1*
b110110 2
1+
#62000000
0*
0+
#62500000
r1.070588235294113 O
r1.070588235294113 H
r1.070588235294113 A
r1.070588235294113 :
1*
b110111 2
1+
#63000000
0*
0+
#63500000
r1.068235294117643 :
r1.068235294117643 A
r1.068235294117643 H
r1.068235294117643 O
1*
b111000 2
1+
#64000000
0*
0+
#64500000
r1.065882352941172 O
r1.065882352941172 H
r1.065882352941172 A
r1.065882352941172 :
1*
b111001 2
1+
#65000000
0*
0+
#65500000
r1.063529411764701 :
r1.063529411764701 A
r1.063529411764701 H
r1.063529411764701 O
1*
b111010 2
1+
#66000000
0*
0+
#66500000
r1.061176470588231 O
r1.061176470588231 H
r1.061176470588231 A
r1.061176470588231 :
1*
b111011 2
1+
#67000000
0*
0+
#67500000
r1.05882352941176 :
r1.05882352941176 A
r1.05882352941176 H
r1.05882352941176 O
1*
b111100 2
1+
#68000000
0*
0+
#68500000
r1.056470588235289 O
r1.056470588235289 H
r1.056470588235289 A
r1.056470588235289 :
1*
b111101 2
1+
#69000000
0*
0+
#69500000
r1.054117647058818 :
r1.054117647058818 A
r1.054117647058818 H
r1.054117647058818 O
1*
b111110 2
1+
#70000000
0*
0+
#70500000
r1.051764705882348 O
r1.051764705882348 H
r1.051764705882348 A
r1.051764705882348 :
1*
b111111 2
1+
#71000000
0*
0+
#71500000
r1.049411764705877 :
r1.049411764705877 A
r1.049411764705877 H
r1.049411764705877 O
1*
b1000000 2
1+
#72000000
0*
0+
#72500000
r1.047058823529406 O
r1.047058823529406 H
r1.047058823529406 A
r1.047058823529406 :
1*
b1000001 2
1+
#73000000
0*
0+
#73500000
r1.044705882352936 :
r1.044705882352936 A
r1.044705882352936 H
r1.044705882352936 O
1*
b1000010 2
1+
#74000000
0*
0+
#74500000
r1.042352941176465 O
r1.042352941176465 H
r1.042352941176465 A
r1.042352941176465 :
1*
b1000011 2
1+
#75000000
0*
0+
#75500000
r1.039999999999994 :
r1.039999999999994 A
r1.039999999999994 H
r1.039999999999994 O
1*
b1000100 2
1+
#76000000
0*
0+
#76500000
r1.037647058823524 O
r1.037647058823524 H
r1.037647058823524 A
r1.037647058823524 :
1*
b1000101 2
1+
#77000000
0*
0+
#77500000
r1.035294117647053 :
r1.035294117647053 A
r1.035294117647053 H
r1.035294117647053 O
1*
b1000110 2
1+
#78000000
0*
0+
#78500000
r1.032941176470582 O
r1.032941176470582 H
r1.032941176470582 A
r1.032941176470582 :
1*
b1000111 2
1+
#79000000
0*
0+
#79500000
r1.030588235294112 :
r1.030588235294112 A
r1.030588235294112 H
r1.030588235294112 O
1*
b1001000 2
1+
#80000000
0*
0+
#80500000
r1.028235294117641 O
r1.028235294117641 H
r1.028235294117641 A
r1.028235294117641 :
1*
b1001001 2
1+
#81000000
0*
0+
#81500000
r1.02588235294117 :
r1.02588235294117 A
r1.02588235294117 H
r1.02588235294117 O
1*
b1001010 2
1+
#82000000
0*
0+
#82500000
r1.0235294117647 O
r1.0235294117647 H
r1.0235294117647 A
r1.0235294117647 :
1*
b1001011 2
1+
#83000000
0*
0+
#83500000
r1.021176470588229 :
r1.021176470588229 A
r1.021176470588229 H
r1.021176470588229 O
1*
b1001100 2
1+
#84000000
0*
0+
#84500000
r1.018823529411758 O
r1.018823529411758 H
r1.018823529411758 A
r1.018823529411758 :
1*
b1001101 2
1+
#85000000
0*
0+
#85500000
r1.016470588235288 :
r1.016470588235288 A
r1.016470588235288 H
r1.016470588235288 O
1*
b1001110 2
1+
#86000000
0*
0+
#86500000
r1.014117647058817 O
r1.014117647058817 H
r1.014117647058817 A
r1.014117647058817 :
1*
b1001111 2
1+
#87000000
0*
0+
#87500000
r1.011764705882346 :
r1.011764705882346 A
r1.011764705882346 H
r1.011764705882346 O
1*
b1010000 2
1+
#88000000
0*
0+
#88500000
r1.009411764705876 O
r1.009411764705876 H
r1.009411764705876 A
r1.009411764705876 :
1*
b1010001 2
1+
#89000000
0*
0+
#89500000
r1.007058823529405 :
r1.007058823529405 A
r1.007058823529405 H
r1.007058823529405 O
1*
b1010010 2
1+
#90000000
0*
0+
#90500000
r1.004705882352934 O
r1.004705882352934 H
r1.004705882352934 A
r1.004705882352934 :
1*
b1010011 2
1+
#91000000
0*
0+
#91500000
r1.002352941176464 :
r1.002352941176464 A
r1.002352941176464 H
r1.002352941176464 O
1*
b1010100 2
1+
#92000000
0*
0+
#92500000
r0.9999999999999932 O
r0.9999999999999932 H
r0.9999999999999932 A
r0.9999999999999932 :
1*
b1010101 2
1+
#93000000
0*
0+
#93500000
r0.9976470588235227 :
r0.9976470588235227 A
r0.9976470588235227 H
r0.9976470588235227 O
1*
b1010110 2
1+
#94000000
0*
0+
#94500000
r0.9952941176470521 O
r0.9952941176470521 H
r0.9952941176470521 A
r0.9952941176470521 :
1*
b1010111 2
1+
#95000000
0*
0+
#95500000
r0.9929411764705816 :
r0.9929411764705816 A
r0.9929411764705816 H
r0.9929411764705816 O
1*
b1011000 2
1+
#96000000
0*
0+
#96500000
r0.990588235294111 O
r0.990588235294111 H
r0.990588235294111 A
r0.990588235294111 :
1*
b1011001 2
1+
#97000000
0*
0+
#97500000
r0.9882352941176404 :
r0.9882352941176404 A
r0.9882352941176404 H
r0.9882352941176404 O
1*
b1011010 2
1+
#98000000
0*
0+
#98500000
r0.9858823529411699 O
r0.9858823529411699 H
r0.9858823529411699 A
r0.9858823529411699 :
1*
b1011011 2
1+
#99000000
0*
0+
#99500000
r0.9835294117646993 :
r0.9835294117646993 A
r0.9835294117646993 H
r0.9835294117646993 O
1*
b1011100 2
1+
#100000000
0*
0+
#100500000
r0.9811764705882288 O
r0.9811764705882288 H
r0.9811764705882288 A
r0.9811764705882288 :
1*
b1011101 2
1+
#101000000
0*
0+
#101500000
r0.9788235294117582 :
r0.9788235294117582 A
r0.9788235294117582 H
r0.9788235294117582 O
1*
b1011110 2
1+
#102000000
0*
0+
#102500000
r0.9764705882352877 O
r0.9764705882352877 H
r0.9764705882352877 A
r0.9764705882352877 :
1*
b1011111 2
1+
#103000000
0*
0+
#103500000
r0.9741176470588171 :
r0.9741176470588171 A
r0.9741176470588171 H
r0.9741176470588171 O
1*
b1100000 2
1+
#104000000
0*
0+
#104500000
r0.9717647058823465 O
r0.9717647058823465 H
r0.9717647058823465 A
r0.9717647058823465 :
1*
b1100001 2
1+
#105000000
0*
0+
#105500000
r0.969411764705876 :
r0.969411764705876 A
r0.969411764705876 H
r0.969411764705876 O
1*
b1100010 2
1+
#106000000
0*
0+
#106500000
r0.9670588235294054 O
r0.9670588235294054 H
r0.9670588235294054 A
r0.9670588235294054 :
1*
b1100011 2
1+
#107000000
0*
0+
#107500000
r0.9647058823529349 :
r0.9647058823529349 A
r0.9647058823529349 H
r0.9647058823529349 O
1*
b1100100 2
1+
#108000000
0*
0+
#108500000
r0.9623529411764643 O
r0.9623529411764643 H
r0.9623529411764643 A
r0.9623529411764643 :
1*
b1100101 2
1+
#109000000
0*
0+
#109500000
r0.9599999999999937 :
r0.9599999999999937 A
r0.9599999999999937 H
r0.9599999999999937 O
1*
b1100110 2
1+
#110000000
0*
0+
#110500000
r0.9576470588235232 O
r0.9576470588235232 H
r0.9576470588235232 A
r0.9576470588235232 :
1*
b1100111 2
1+
#111000000
0*
0+
#111500000
r0.9552941176470526 :
r0.9552941176470526 A
r0.9552941176470526 H
r0.9552941176470526 O
1*
b1101000 2
1+
#112000000
0*
0+
#112500000
r0.9529411764705821 O
r0.9529411764705821 H
r0.9529411764705821 A
r0.9529411764705821 :
1*
b1101001 2
1+
#113000000
0*
0+
#113500000
r0.9505882352941115 :
r0.9505882352941115 A
r0.9505882352941115 H
r0.9505882352941115 O
1*
b1101010 2
1+
#114000000
0*
0+
#114500000
r0.948235294117641 O
r0.948235294117641 H
r0.948235294117641 A
r0.948235294117641 :
1*
b1101011 2
1+
#115000000
0*
0+
#115500000
r0.9458823529411704 :
r0.9458823529411704 A
r0.9458823529411704 H
r0.9458823529411704 O
1*
b1101100 2
1+
#116000000
0*
0+
#116500000
r0.9435294117646998 O
r0.9435294117646998 H
r0.9435294117646998 A
r0.9435294117646998 :
1*
b1101101 2
1+
#117000000
0*
0+
#117500000
r0.9411764705882293 :
r0.9411764705882293 A
r0.9411764705882293 H
r0.9411764705882293 O
1*
b1101110 2
1+
#118000000
0*
0+
#118500000
r0.9388235294117587 O
r0.9388235294117587 H
r0.9388235294117587 A
r0.9388235294117587 :
1*
b1101111 2
1+
#119000000
0*
0+
#119500000
r0.9364705882352882 :
r0.9364705882352882 A
r0.9364705882352882 H
r0.9364705882352882 O
1*
b1110000 2
1+
#120000000
0*
0+
#120500000
r0.9341176470588176 O
r0.9341176470588176 H
r0.9341176470588176 A
r0.9341176470588176 :
1*
b1110001 2
1+
#121000000
0*
0+
#121500000
r0.9317647058823471 :
r0.9317647058823471 A
r0.9317647058823471 H
r0.9317647058823471 O
1*
b1110010 2
1+
#122000000
0*
0+
#122500000
r0.9294117647058765 O
r0.9294117647058765 H
r0.9294117647058765 A
r0.9294117647058765 :
1*
b1110011 2
1+
#123000000
0*
0+
#123500000
r0.9270588235294059 :
r0.9270588235294059 A
r0.9270588235294059 H
r0.9270588235294059 O
1*
b1110100 2
1+
#124000000
0*
0+
#124500000
r0.9247058823529354 O
r0.9247058823529354 H
r0.9247058823529354 A
r0.9247058823529354 :
1*
b1110101 2
1+
#125000000
0*
0+
#125500000
r0.9223529411764648 :
r0.9223529411764648 A
r0.9223529411764648 H
r0.9223529411764648 O
1*
b1110110 2
1+
#126000000
0*
0+
#126500000
r0.9199999999999943 O
r0.9199999999999943 H
r0.9199999999999943 A
r0.9199999999999943 :
1*
b1110111 2
1+
#127000000
0*
0+
#127500000
r0.9176470588235237 :
r0.9176470588235237 A
r0.9176470588235237 H
r0.9176470588235237 O
1*
b1111000 2
1+
#128000000
0*
0+
#128500000
r0.9152941176470532 O
r0.9152941176470532 H
r0.9152941176470532 A
r0.9152941176470532 :
1*
b1111001 2
1+
#129000000
0*
0+
#129500000
r0.9129411764705826 :
r0.9129411764705826 A
r0.9129411764705826 H
r0.9129411764705826 O
1*
b1111010 2
1+
#130000000
0*
0+
#130500000
r0.910588235294112 O
r0.910588235294112 H
r0.910588235294112 A
r0.910588235294112 :
1*
b1111011 2
1+
#131000000
0*
0+
#131500000
r0.9082352941176415 :
r0.9082352941176415 A
r0.9082352941176415 H
r0.9082352941176415 O
1*
b1111100 2
1+
#132000000
0*
0+
#132500000
r0.9058823529411709 O
r0.9058823529411709 H
r0.9058823529411709 A
r0.9058823529411709 :
1*
b1111101 2
1+
#133000000
0*
0+
#133500000
r0.9035294117647004 :
r0.9035294117647004 A
r0.9035294117647004 H
r0.9035294117647004 O
1*
b1111110 2
1+
#134000000
0*
0+
#134500000
r0.9011764705882298 O
r0.9011764705882298 H
r0.9011764705882298 A
r0.9011764705882298 :
1*
b1111111 2
1+
#135000000
0*
0+
#135500000
r0.8988235294117592 :
r0.8988235294117592 A
r0.8988235294117592 H
r0.8988235294117592 O
1*
b10000000 2
1+
#136000000
0*
0+
#136500000
r0.8964705882352887 O
r0.8964705882352887 H
r0.8964705882352887 A
r0.8964705882352887 :
1*
b10000001 2
1+
#137000000
0*
0+
#137500000
r0.8941176470588181 :
r0.8941176470588181 A
r0.8941176470588181 H
r0.8941176470588181 O
1*
b10000010 2
1+
#138000000
0*
0+
#138500000
r0.8917647058823476 O
r0.8917647058823476 H
r0.8917647058823476 A
r0.8917647058823476 :
1*
b10000011 2
1+
#139000000
0*
0+
#139500000
r0.889411764705877 :
r0.889411764705877 A
r0.889411764705877 H
r0.889411764705877 O
1*
b10000100 2
1+
#140000000
0*
0+
#140500000
r0.8870588235294065 O
r0.8870588235294065 H
r0.8870588235294065 A
r0.8870588235294065 :
1*
b10000101 2
1+
#141000000
0*
0+
#141500000
r0.8847058823529359 :
r0.8847058823529359 A
r0.8847058823529359 H
r0.8847058823529359 O
1*
b10000110 2
1+
#142000000
0*
0+
#142500000
r0.8823529411764653 O
r0.8823529411764653 H
r0.8823529411764653 A
r0.8823529411764653 :
1*
b10000111 2
1+
#143000000
0*
0+
#143500000
r0.8799999999999948 :
r0.8799999999999948 A
r0.8799999999999948 H
r0.8799999999999948 O
1*
b10001000 2
1+
#144000000
0*
0+
#144500000
r0.8776470588235242 O
r0.8776470588235242 H
r0.8776470588235242 A
r0.8776470588235242 :
1*
b10001001 2
1+
#145000000
0*
0+
#145500000
r0.8752941176470537 :
r0.8752941176470537 A
r0.8752941176470537 H
r0.8752941176470537 O
1*
b10001010 2
1+
#146000000
0*
0+
#146500000
r0.8729411764705831 O
r0.8729411764705831 H
r0.8729411764705831 A
r0.8729411764705831 :
1*
b10001011 2
1+
#147000000
0*
0+
#147500000
r0.8705882352941126 :
r0.8705882352941126 A
r0.8705882352941126 H
r0.8705882352941126 O
1*
b10001100 2
1+
#148000000
0*
0+
#148500000
r0.868235294117642 O
r0.868235294117642 H
r0.868235294117642 A
r0.868235294117642 :
1*
b10001101 2
1+
#149000000
0*
0+
#149500000
r0.8658823529411714 :
r0.8658823529411714 A
r0.8658823529411714 H
r0.8658823529411714 O
1*
b10001110 2
1+
#150000000
0*
0+
#150500000
r0.8635294117647009 O
r0.8635294117647009 H
r0.8635294117647009 A
r0.8635294117647009 :
1*
b10001111 2
1+
#151000000
0*
0+
#151500000
r0.8611764705882303 :
r0.8611764705882303 A
r0.8611764705882303 H
r0.8611764705882303 O
1*
b10010000 2
1+
#152000000
0*
0+
#152500000
r0.8588235294117598 O
r0.8588235294117598 H
r0.8588235294117598 A
r0.8588235294117598 :
1*
b10010001 2
1+
#153000000
0*
0+
#153500000
r0.8564705882352892 :
r0.8564705882352892 A
r0.8564705882352892 H
r0.8564705882352892 O
1*
b10010010 2
1+
#154000000
0*
0+
#154500000
r0.8541176470588187 O
r0.8541176470588187 H
r0.8541176470588187 A
r0.8541176470588187 :
1*
b10010011 2
1+
#155000000
0*
0+
#155500000
r0.8517647058823481 :
r0.8517647058823481 A
r0.8517647058823481 H
r0.8517647058823481 O
1*
b10010100 2
1+
#156000000
0*
0+
#156500000
r0.8494117647058775 O
r0.8494117647058775 H
r0.8494117647058775 A
r0.8494117647058775 :
1*
b10010101 2
1+
#157000000
0*
0+
#157500000
r0.847058823529407 :
r0.847058823529407 A
r0.847058823529407 H
r0.847058823529407 O
1*
b10010110 2
1+
#158000000
0*
0+
#158500000
r0.8447058823529364 O
r0.8447058823529364 H
r0.8447058823529364 A
r0.8447058823529364 :
1*
b10010111 2
1+
#159000000
0*
0+
#159500000
r0.8423529411764659 :
r0.8423529411764659 A
r0.8423529411764659 H
r0.8423529411764659 O
1*
b10011000 2
1+
#160000000
0*
0+
#160500000
r0.8399999999999953 O
r0.8399999999999953 H
r0.8399999999999953 A
r0.8399999999999953 :
1*
b10011001 2
1+
#161000000
0*
0+
#161500000
r0.8376470588235247 :
r0.8376470588235247 A
r0.8376470588235247 H
r0.8376470588235247 O
1*
b10011010 2
1+
#162000000
0*
0+
#162500000
r0.8352941176470542 O
r0.8352941176470542 H
r0.8352941176470542 A
r0.8352941176470542 :
1*
b10011011 2
1+
#163000000
0*
0+
#163500000
r0.8329411764705836 :
r0.8329411764705836 A
r0.8329411764705836 H
r0.8329411764705836 O
1*
b10011100 2
1+
#164000000
0*
0+
#164500000
r0.8305882352941131 O
r0.8305882352941131 H
r0.8305882352941131 A
r0.8305882352941131 :
1*
b10011101 2
1+
#165000000
0*
0+
#165500000
r0.8282352941176425 :
r0.8282352941176425 A
r0.8282352941176425 H
r0.8282352941176425 O
1*
b10011110 2
1+
#166000000
0*
0+
#166500000
r0.825882352941172 O
r0.825882352941172 H
r0.825882352941172 A
r0.825882352941172 :
1*
b10011111 2
1+
#167000000
0*
0+
#167500000
r0.8235294117647014 :
r0.8235294117647014 A
r0.8235294117647014 H
r0.8235294117647014 O
1*
b10100000 2
1+
#168000000
0*
0+
#168500000
r0.8211764705882308 O
r0.8211764705882308 H
r0.8211764705882308 A
r0.8211764705882308 :
1*
b10100001 2
1+
#169000000
0*
0+
#169500000
r0.8188235294117603 :
r0.8188235294117603 A
r0.8188235294117603 H
r0.8188235294117603 O
1*
b10100010 2
1+
#170000000
0*
0+
#170500000
r0.8164705882352897 O
r0.8164705882352897 H
r0.8164705882352897 A
r0.8164705882352897 :
1*
b10100011 2
1+
#171000000
0*
0+
#171500000
r0.8141176470588192 :
r0.8141176470588192 A
r0.8141176470588192 H
r0.8141176470588192 O
1*
b10100100 2
1+
#172000000
0*
0+
#172500000
r0.8117647058823486 O
r0.8117647058823486 H
r0.8117647058823486 A
r0.8117647058823486 :
1*
b10100101 2
1+
#173000000
0*
0+
#173500000
r0.8094117647058781 :
r0.8094117647058781 A
r0.8094117647058781 H
r0.8094117647058781 O
1*
b10100110 2
1+
#174000000
0*
0+
#174500000
r0.8070588235294075 O
r0.8070588235294075 H
r0.8070588235294075 A
r0.8070588235294075 :
1*
b10100111 2
1+
#175000000
0*
0+
#175500000
r0.8047058823529369 :
r0.8047058823529369 A
r0.8047058823529369 H
r0.8047058823529369 O
1*
b10101000 2
1+
#176000000
0*
0+
#176500000
r0.8023529411764664 O
r0.8023529411764664 H
r0.8023529411764664 A
r0.8023529411764664 :
1*
b10101001 2
1+
#177000000
0*
0+
#177500000
r0.7999999999999958 :
r0.7999999999999958 A
r0.7999999999999958 H
r0.7999999999999958 O
1*
b10101010 2
1+
#178000000
0*
0+
#178500000
r0.7976470588235253 O
r0.7976470588235253 H
r0.7976470588235253 A
r0.7976470588235253 :
1*
b10101011 2
1+
#179000000
0*
0+
#179500000
r0.7952941176470547 :
r0.7952941176470547 A
r0.7952941176470547 H
r0.7952941176470547 O
1*
b10101100 2
1+
#180000000
0*
0+
